[
    
    {
        "id": "300", "firstname": "Jadarius", "lastname": "Humbird",
        "gender": "female",
        "email": "ila.hayes@parcoe.com",
        "birthday": "Fr, 4 Dez 2020 10:24:57 MEZ",
        "creationDate": "Fr, 4 Dez 2020 10:24:57 MEZ",
        "locationIP": "34.93.249.211",
        "browserUser": "Mozilla Firefox",
        "place": "Poland"
    },

    {
        "id": "301", "firstname": "Figuroa", "lastname": "Wachtler",
        "gender": "male",
        "email": "lowery.blevins@kiosk.com",
        "birthday": "Fr, 4 Dez 2020 10:24:57 MEZ",
        "creationDate": "Fr, 4 Dez 2020 10:24:57 MEZ",
        "locationIP": "134.53.238.145",
        "browserUser": "Mozilla Firefox",
        "place": "Togo"
    }
]
