[
    
    {
        "vendor": "Mercedez-Benz",
        "country": "Montserrat",
        "industry": "Information Services"
    },

    {
        "vendor": "AstralSat",
        "country": "Sri Lanka",
        "industry": "Animation"
    },

    {
        "vendor": "TransPerth",
        "country": "Turkey",
        "industry": "Shipbuilding"
    },

    {
        "vendor": "Legrand",
        "country": "Nepal",
        "industry": "Glass/Ceramics/Concrete"
    },

    {
        "vendor": "Victrex",
        "country": "Slovakia",
        "industry": "Museums/Institutions"
    },

    {
        "vendor": "RockStar Energy Drink",
        "country": "Egypt",
        "industry": "Packaging/Containers"
    },

    {
        "vendor": "EVA Air",
        "country": "Sierra Leone",
        "industry": "Defense/Space"
    },

    {
        "vendor": "The North Face",
        "country": "Hungary",
        "industry": "Furniture"
    },

    {
        "vendor": "Merida",
        "country": "Mongolia",
        "industry": "Sports"
    },

    {
        "vendor": "Sunway City",
        "country": "Cayman Islands",
        "industry": "Staffing/Recruiting"
    },

    {
        "vendor": "Kyobo",
        "country": "Liberia",
        "industry": "Religious Institutions"
    },

    {
        "vendor": "Forte",
        "country": "Slovakia",
        "industry": "Logistics/Procurement"
    },

    {
        "vendor": "Elders IXL",
        "country": "Lithuania",
        "industry": "Writing/Editing"
    },

    {
        "vendor": "Porsche",
        "country": "Guinea",
        "industry": "Individual/Family Services"
    },

    {
        "vendor": "Drano",
        "country": "Turks &amp; Caicos",
        "industry": "Oil/Energy/Solar/Greentech"
    },

    {
        "vendor": "KGI",
        "country": "Zimbabwe",
        "industry": "Graphic Design/Web Design"
    },

    {
        "vendor": "Anheuser-Busch",
        "country": "Russia",
        "industry": "Photography"
    },

    {
        "vendor": "Teleflora",
        "country": "Cook Islands",
        "industry": "Aviation/Aerospace"
    },

    {
        "vendor": "Meteor",
        "country": "Senegal",
        "industry": "Performing Arts"
    },

    {
        "vendor": "Sunbeam",
        "country": "Timor L'Este",
        "industry": "Wireless"
    },

    {
        "vendor": "Intralot",
        "country": "South Korea",
        "industry": "Events Services"
    },

    {
        "vendor": "Everlast",
        "country": "Kyrgyz Republic",
        "industry": "Other Industry"
    },

    {
        "vendor": "Express Virtual Meetings",
        "country": "Greenland",
        "industry": "Medical Practice"
    },

    {
        "vendor": "Biolage",
        "country": "Chile",
        "industry": "Apparel/Fashion"
    },

    {
        "vendor": "Interpark",
        "country": "Tajikistan",
        "industry": "Glass/Ceramics/Concrete"
    },

    {
        "vendor": "Coles Group Lmt",
        "country": "Qatar",
        "industry": "Oil/Energy/Solar/Greentech"
    },

    {
        "vendor": "Slim Jim",
        "country": "Algeria",
        "industry": "Mental Health Care"
    },

    {
        "vendor": "EnviroMission",
        "country": "Rwanda",
        "industry": "Computer Networking"
    },

    {
        "vendor": "PARKnSHOP",
        "country": "Macau",
        "industry": "Utilities"
    },

    {
        "vendor": "Helene Curtis",
        "country": "Honduras",
        "industry": "Program Development"
    },

    {
        "vendor": "Swan Brewery",
        "country": "Paraguay",
        "industry": "Medical Equipment"
    },

    {
        "vendor": "Matchbox",
        "country": "Guinea",
        "industry": "Marketing/Advertising/Sales"
    },

    {
        "vendor": "China Construction Bank",
        "country": "Fiji",
        "industry": "Medical Practice"
    },

    {
        "vendor": "Pioneer",
        "country": "Philippines",
        "industry": "Wholesale"
    },

    {
        "vendor": "Graco",
        "country": "Lebanon",
        "industry": "Music"
    },

    {
        "vendor": "Oscar Mayer",
        "country": "Serbia",
        "industry": "Tobacco"
    },

    {
        "vendor": "Mr. Clean",
        "country": "Spain",
        "industry": "Market Research"
    },

    {
        "vendor": "Evian",
        "country": "Lebanon",
        "industry": "Capital Markets/Hedge Fund/Private Equity"
    },

    {
        "vendor": "Alexander Keith's Brewery",
        "country": "Antigua &amp; Barbuda",
        "industry": "Performing Arts"
    },

    {
        "vendor": "Porta Potti",
        "country": "Peru",
        "industry": "Recreational Facilities/Services"
    },

    {
        "vendor": "TLC",
        "country": "Guyana",
        "industry": "Sporting Goods"
    },

    {
        "vendor": "Theraflu",
        "country": "Mongolia",
        "industry": "E-Learning"
    },

    {
        "vendor": "Maybach",
        "country": "Laos",
        "industry": "Mental Health Care"
    },

    {
        "vendor": "Pine-Sol",
        "country": "Tanzania",
        "industry": "Business Supplies/Equipment"
    },

    {
        "vendor": "Snickers",
        "country": "Palestine",
        "industry": "Religious Institutions"
    },

    {
        "vendor": "85°C",
        "country": "Australia",
        "industry": "Information Services"
    },

    {
        "vendor": "Hutchison Whampoa",
        "country": "Belarus",
        "industry": "Transportation"
    },

    {
        "vendor": "RingkÃ¸bing Landbobank",
        "country": "Czech Republic",
        "industry": "Executive Office"
    },

    {
        "vendor": "Kumho",
        "country": "Tajikistan",
        "industry": "Civil Engineering"
    },

    {
        "vendor": "LavAzza",
        "country": "Cook Islands",
        "industry": "Fundraising"
    },

    {
        "vendor": "Wyeth",
        "country": "South Korea",
        "industry": "Public Safety"
    },

    {
        "vendor": "Twinkies",
        "country": "Sudan",
        "industry": "Architecture/Planning"
    },

    {
        "vendor": "Solara",
        "country": "Lithuania",
        "industry": "Mining/Metals"
    },

    {
        "vendor": "Abreva",
        "country": "Kyrgyz Republic",
        "industry": "Primary/Secondary Education"
    },

    {
        "vendor": "Lufthansa",
        "country": "Brazil",
        "industry": "Farming"
    },

    {
        "vendor": "Snow",
        "country": "Hong Kong",
        "industry": "Public Relations/PR"
    },

    {
        "vendor": "Bally",
        "country": "Grenada",
        "industry": "Wireless"
    },

    {
        "vendor": "Juan Valdez CafÃ©",
        "country": "Cayman Islands",
        "industry": "E-Learning"
    },

    {
        "vendor": "Copesa",
        "country": "Mali",
        "industry": "Real Estate/Mortgage"
    },

    {
        "vendor": "Caracu",
        "country": "Morocco",
        "industry": "Medical Practice"
    },

    {
        "vendor": "Vintage 1",
        "country": "Swaziland",
        "industry": "Luxury Goods/Jewelry"
    },

    {
        "vendor": "Greyhound",
        "country": "Ireland",
        "industry": "Business Supplies/Equipment"
    },

    {
        "vendor": "Ranger",
        "country": "Mexico",
        "industry": "Gambling/Casinos"
    },

    {
        "vendor": "Liebherr",
        "country": "Cuba",
        "industry": "Higher Education/Acadamia"
    },

    {
        "vendor": "Speedo",
        "country": "Panama",
        "industry": "Military Industry"
    },

    {
        "vendor": "Coolpix",
        "country": "Netherlands Antilles",
        "industry": "Sports"
    },

    {
        "vendor": "Brookfield Asset Management",
        "country": "Argentina",
        "industry": "Fundraising"
    },

    {
        "vendor": "Helzberg Diamond",
        "country": "Kyrgyz Republic",
        "industry": "Nanotechnology"
    },

    {
        "vendor": "Jockey",
        "country": "Morocco",
        "industry": "Farming"
    },

    {
        "vendor": "China Construction Bank",
        "country": "Malawi",
        "industry": "Higher Education/Acadamia"
    },

    {
        "vendor": "Colorado",
        "country": "Guam",
        "industry": "Transportation"
    },

    {
        "vendor": "Play-Doh",
        "country": "Zambia",
        "industry": "Machinery"
    },

    {
        "vendor": "Good & Plenty",
        "country": "Armenia",
        "industry": "Photography"
    },

    {
        "vendor": "El Mercio SAP",
        "country": "Cameroon",
        "industry": "Human Resources/HR"
    },

    {
        "vendor": "Quicksilver",
        "country": "Swaziland",
        "industry": "Apparel/Fashion"
    },

    {
        "vendor": "Ucell",
        "country": "Paraguay",
        "industry": "Outsourcing/Offshoring"
    },

    {
        "vendor": "University Games",
        "country": "Argentina",
        "industry": "Wholesale"
    },

    {
        "vendor": "Astra Zeneca",
        "country": "Netherlands",
        "industry": "Legislative Office"
    },

    {
        "vendor": "Shop Rite",
        "country": "Lesotho",
        "industry": "Farming"
    },

    {
        "vendor": "Chili's",
        "country": "Aruba",
        "industry": "Motion Pictures/Film"
    },

    {
        "vendor": "Libertad",
        "country": "Hungary",
        "industry": "Business Supplies/Equipment"
    },

    {
        "vendor": "Hellman's",
        "country": "South Africa",
        "industry": "Accounting"
    },

    {
        "vendor": "SEAT",
        "country": "Antigua &amp; Barbuda",
        "industry": "Recreational Facilities/Services"
    },

    {
        "vendor": "Parle",
        "country": "Japan",
        "industry": "Nanotechnology"
    },

    {
        "vendor": "Mead",
        "country": "Zambia",
        "industry": "Defense/Space"
    },

    {
        "vendor": "Dymocks",
        "country": "Ireland",
        "industry": "Investment Banking/Venture"
    },

    {
        "vendor": "Weight Watchers",
        "country": "Tonga",
        "industry": "Consumer Electronics"
    },

    {
        "vendor": "Book",
        "country": "Bahamas",
        "industry": "Facilities Services"
    },

    {
        "vendor": "OmniPro",
        "country": "Ethiopia",
        "industry": "Fishery"
    },

    {
        "vendor": "Twingly",
        "country": "Bolivia",
        "industry": "Venture Capital/VC"
    },

    {
        "vendor": "Reese's",
        "country": "Jamaica",
        "industry": "Gambling/Casinos"
    },

    {
        "vendor": "Driza-Bone",
        "country": "Cote D Ivoire",
        "industry": "Other Industry"
    },

    {
        "vendor": "Center Fresh",
        "country": "Palestine",
        "industry": "Computer Networking"
    },

    {
        "vendor": "Hormel",
        "country": "Paraguay",
        "industry": "Maritime"
    },

    {
        "vendor": "Osram",
        "country": "Cruise Ship",
        "industry": "Import/Export"
    },

    {
        "vendor": "Cheetos",
        "country": "Kazakhstan",
        "industry": "Wine/Spirits"
    },

    {
        "vendor": "Halls",
        "country": "Burundi",
        "industry": "Civil Engineering"
    },

    {
        "vendor": "Corn Pops",
        "country": "Bahamas",
        "industry": "Public Safety"
    },

    {
        "vendor": "Fosters",
        "country": "Germany",
        "industry": "Glass/Ceramics/Concrete"
    },

    {
        "vendor": "Virgin Atlantic",
        "country": "Cayman Islands",
        "industry": "Luxury Goods/Jewelry"
    }
]
